%YAML 1.1
%TAG !u! tag:unity3d.com,2011:
--- !u!74 &7400000
AnimationClip:
  m_ObjectHideFlags: 0
  m_CorrespondingSourceObject: {fileID: 0}
  m_PrefabInstance: {fileID: 0}
  m_PrefabAsset: {fileID: 0}
  m_Name: idle
  serializedVersion: 6
  m_Legacy: 0
  m_Compressed: 0
  m_UseHighQualityCurve: 1
  m_RotationCurves: []
  m_CompressedRotationCurves: []
  m_EulerCurves: []
  m_PositionCurves: []
  m_ScaleCurves: []
  m_FloatCurves: []
  m_PPtrCurves:
  - curve:
    - time: 0
      value: {fileID: 21300000, guid: b445d7d83f6dbff4cabc8b2362a96e07, type: 3}
    - time: 0.05
      value: {fileID: 21300000, guid: 7fb26748b873b4a4398b7b781538ce40, type: 3}
    - time: 0.1
      value: {fileID: 21300000, guid: 9d4a013d40dcc9b488db53f822e1db0b, type: 3}
    - time: 0.15
      value: {fileID: 21300000, guid: 5bd0d451f82cbd6429707a4c6d827289, type: 3}
    - time: 0.2
      value: {fileID: 21300000, guid: 2090ee056f9dfcb4e9360ea5508ff11c, type: 3}
    - time: 0.25
      value: {fileID: 21300000, guid: c012c1d6aa99539439957ff7a9a5c742, type: 3}
    - time: 0.3
      value: {fileID: 21300000, guid: d428a32f49ec4f347929a203c3980d2a, type: 3}
    - time: 0.35
      value: {fileID: 21300000, guid: 9c8591d40cca99c4e87a1789768bb37b, type: 3}
    - time: 0.4
      value: {fileID: 21300000, guid: 2cad33e1ee3716c45ad8709ed6c4ba84, type: 3}
    attribute: m_Sprite
    path: 
    classID: 212
    script: {fileID: 0}
  m_SampleRate: 60
  m_WrapMode: 0
  m_Bounds:
    m_Center: {x: 0, y: 0, z: 0}
    m_Extent: {x: 0, y: 0, z: 0}
  m_ClipBindingConstant:
    genericBindings:
    - serializedVersion: 2
      path: 0
      attribute: 0
      script: {fileID: 0}
      typeID: 212
      customType: 23
      isPPtrCurve: 1
    pptrCurveMapping:
    - {fileID: 21300000, guid: b445d7d83f6dbff4cabc8b2362a96e07, type: 3}
    - {fileID: 21300000, guid: 7fb26748b873b4a4398b7b781538ce40, type: 3}
    - {fileID: 21300000, guid: 9d4a013d40dcc9b488db53f822e1db0b, type: 3}
    - {fileID: 21300000, guid: 5bd0d451f82cbd6429707a4c6d827289, type: 3}
    - {fileID: 21300000, guid: 2090ee056f9dfcb4e9360ea5508ff11c, type: 3}
    - {fileID: 21300000, guid: c012c1d6aa99539439957ff7a9a5c742, type: 3}
    - {fileID: 21300000, guid: d428a32f49ec4f347929a203c3980d2a, type: 3}
    - {fileID: 21300000, guid: 9c8591d40cca99c4e87a1789768bb37b, type: 3}
    - {fileID: 21300000, guid: 2cad33e1ee3716c45ad8709ed6c4ba84, type: 3}
  m_AnimationClipSettings:
    serializedVersion: 2
    m_AdditiveReferencePoseClip: {fileID: 0}
    m_AdditiveReferencePoseTime: 0
    m_StartTime: 0
    m_StopTime: 0.4166667
    m_OrientationOffsetY: 0
    m_Level: 0
    m_CycleOffset: 0
    m_HasAdditiveReferencePose: 0
    m_LoopTime: 1
    m_LoopBlend: 0
    m_LoopBlendOrientation: 0
    m_LoopBlendPositionY: 0
    m_LoopBlendPositionXZ: 0
    m_KeepOriginalOrientation: 0
    m_KeepOriginalPositionY: 1
    m_KeepOriginalPositionXZ: 0
    m_HeightFromFeet: 0
    m_Mirror: 0
  m_EditorCurves: []
  m_EulerEditorCurves: []
  m_HasGenericRootTransform: 0
  m_HasMotionFloatCurves: 0
  m_Events: []
